/*
WARNING: Do NOT edit the input and output ports in this file in a text
editor if you plan to continue editing the block that represents it in
the Block Editor! File corruption is VERY likely to occur.
*/
/*
Copyright (C) 1991-2015 Altera Corporation. All rights reserved.
Your use of Altera Corporation's design tools, logic functions 
and other software and tools, and its AMPP partner logic 
functions, and any output files from any of the foregoing 
(including device programming or simulation files), and any 
associated documentation or information are expressly subject 
to the terms and conditions of the Altera Program License 
Subscription Agreement, the Altera Quartus II License Agreement,
the Altera MegaCore Function License Agreement, or other 
applicable license agreement, including, without limitation, 
that your use is for the sole purpose of programming logic 
devices manufactured by Altera and sold by Altera or its 
authorized distributors.  Please refer to the applicable 
agreement for further details.
*/
(header "graphic" (version "1.4"))
(pin
	(input)
	(rect 384 256 584 272)
	(text "INPUT" (rect 157 0 185 10)(font "Arial" (font_size 6)))
	(text "VGA_Addr[17..0]" (rect 5 0 87 12)(font "Arial" ))
	(pt 200 8)
	(drawing
		(line (pt 116 12)(pt 141 12))
		(line (pt 116 4)(pt 141 4))
		(line (pt 145 8)(pt 200 8))
		(line (pt 116 12)(pt 116 4))
		(line (pt 141 4)(pt 145 8))
		(line (pt 141 12)(pt 145 8))
	)
	(text "VCC" (rect 160 7 180 17)(font "Arial" (font_size 6)))
)
(pin
	(input)
	(rect 368 688 584 704)
	(text "INPUT" (rect 173 0 201 10)(font "Arial" (font_size 6)))
	(text "GraphicsDataIn[15..0]" (rect 5 0 113 12)(font "Arial" ))
	(pt 216 8)
	(drawing
		(line (pt 132 12)(pt 157 12))
		(line (pt 132 4)(pt 157 4))
		(line (pt 161 8)(pt 216 8))
		(line (pt 132 12)(pt 132 4))
		(line (pt 157 4)(pt 161 8))
		(line (pt 157 12)(pt 161 8))
	)
	(text "VCC" (rect 176 7 196 17)(font "Arial" (font_size 6)))
)
(pin
	(input)
	(rect 368 672 584 688)
	(text "INPUT" (rect 173 0 201 10)(font "Arial" (font_size 6)))
	(text "Graphics_Addr[17..0]" (rect 5 0 108 12)(font "Arial" ))
	(pt 216 8)
	(drawing
		(line (pt 132 12)(pt 157 12))
		(line (pt 132 4)(pt 157 4))
		(line (pt 161 8)(pt 216 8))
		(line (pt 132 12)(pt 132 4))
		(line (pt 157 4)(pt 161 8))
		(line (pt 157 12)(pt 161 8))
	)
	(text "VCC" (rect 176 7 196 17)(font "Arial" (font_size 6)))
)
(pin
	(input)
	(rect 408 280 584 296)
	(text "INPUT" (rect 133 0 161 10)(font "Arial" (font_size 6)))
	(text "Clock_50Mhz" (rect 5 0 69 12)(font "Arial" ))
	(pt 176 8)
	(drawing
		(line (pt 92 12)(pt 117 12))
		(line (pt 92 4)(pt 117 4))
		(line (pt 121 8)(pt 176 8))
		(line (pt 92 12)(pt 92 4))
		(line (pt 117 4)(pt 121 8))
		(line (pt 117 12)(pt 121 8))
	)
	(text "VCC" (rect 136 7 156 17)(font "Arial" (font_size 6)))
)
(pin
	(input)
	(rect 320 760 592 776)
	(text "INPUT" (rect 229 0 257 10)(font "Arial" (font_size 6)))
	(text "Graphics_Upper_Byte_Enable" (rect 5 0 152 12)(font "Arial" ))
	(pt 272 8)
	(drawing
		(line (pt 188 12)(pt 213 12))
		(line (pt 188 4)(pt 213 4))
		(line (pt 217 8)(pt 272 8))
		(line (pt 188 12)(pt 188 4))
		(line (pt 213 4)(pt 217 8))
		(line (pt 213 12)(pt 217 8))
	)
	(text "VCC" (rect 232 7 252 17)(font "Arial" (font_size 6)))
)
(pin
	(input)
	(rect 320 800 592 816)
	(text "INPUT" (rect 229 0 257 10)(font "Arial" (font_size 6)))
	(text "Graphics_Lower_Byte_Enable" (rect 5 0 151 12)(font "Arial" ))
	(pt 272 8)
	(drawing
		(line (pt 188 12)(pt 213 12))
		(line (pt 188 4)(pt 213 4))
		(line (pt 217 8)(pt 272 8))
		(line (pt 188 12)(pt 188 4))
		(line (pt 213 4)(pt 217 8))
		(line (pt 213 12)(pt 217 8))
	)
	(text "VCC" (rect 232 7 252 17)(font "Arial" (font_size 6)))
)
(pin
	(input)
	(rect 352 816 592 832)
	(text "INPUT" (rect 197 0 225 10)(font "Arial" (font_size 6)))
	(text "Graphics_Write_Enable" (rect 5 0 119 12)(font "Arial" ))
	(pt 240 8)
	(drawing
		(line (pt 156 12)(pt 181 12))
		(line (pt 156 4)(pt 181 4))
		(line (pt 185 8)(pt 240 8))
		(line (pt 156 12)(pt 156 4))
		(line (pt 181 4)(pt 185 8))
		(line (pt 181 12)(pt 185 8))
	)
	(text "VCC" (rect 200 7 220 17)(font "Arial" (font_size 6)))
)
(pin
	(output)
	(rect 392 240 584 256)
	(text "OUTPUT" (rect 148 0 186 10)(font "Arial" (font_size 6)))
	(text "VGA_Data[15..0]" (rect 5 0 88 12)(font "Arial" ))
	(pt 192 8)
	(drawing
		(line (pt 192 8)(pt 140 8))
		(line (pt 140 4)(pt 114 4))
		(line (pt 140 12)(pt 114 12))
		(line (pt 140 12)(pt 140 4))
		(line (pt 114 4)(pt 110 8))
		(line (pt 110 8)(pt 114 12))
		(line (pt 114 12)(pt 110 8))
	)
	(flipy)
)
(pin
	(output)
	(rect 352 704 584 720)
	(text "OUTPUT" (rect 188 0 226 10)(font "Arial" (font_size 6)))
	(text "GraphicsDataOut[15..0]" (rect 5 0 121 12)(font "Arial" ))
	(pt 232 8)
	(drawing
		(line (pt 232 8)(pt 180 8))
		(line (pt 180 4)(pt 154 4))
		(line (pt 180 12)(pt 154 12))
		(line (pt 180 12)(pt 180 4))
		(line (pt 154 4)(pt 150 8))
		(line (pt 150 8)(pt 154 12))
		(line (pt 154 12)(pt 150 8))
	)
	(flipy)
)
(symbol
	(rect 904 416 936 448)
	(text "GND" (rect 4 8 14 29)(font "Arial" (font_size 6))(vertical))
	(text "inst28" (rect -3 3 9 32)(font "Arial" )(vertical)(invisible))
	(port
		(pt 32 16)
		(output)
		(text "1" (rect 18 0 23 12)(font "Courier New" (bold))(invisible))
		(text "1" (rect 18 18 30 23)(font "Courier New" (bold))(vertical)(invisible))
		(line (pt 24 16)(pt 32 16))
	)
	(drawing
		(line (pt 24 8)(pt 16 16))
		(line (pt 16 16)(pt 24 24))
		(line (pt 24 8)(pt 24 24))
	)
	(rotate270)
)
(symbol
	(rect 1416 416 1448 448)
	(text "GND" (rect 4 8 14 29)(font "Arial" (font_size 6))(vertical))
	(text "inst29" (rect -3 3 9 32)(font "Arial" )(vertical)(invisible))
	(port
		(pt 32 16)
		(output)
		(text "1" (rect 18 0 23 12)(font "Courier New" (bold))(invisible))
		(text "1" (rect 18 18 30 23)(font "Courier New" (bold))(vertical)(invisible))
		(line (pt 24 16)(pt 32 16))
	)
	(drawing
		(line (pt 24 8)(pt 16 16))
		(line (pt 16 16)(pt 24 24))
		(line (pt 24 8)(pt 24 24))
	)
	(rotate270)
)
(symbol
	(rect 664 416 696 448)
	(text "GND" (rect 8 16 29 26)(font "Arial" (font_size 6)))
	(text "inst" (rect 3 21 20 33)(font "Arial" )(invisible))
	(port
		(pt 16 0)
		(output)
		(text "1" (rect 18 0 23 12)(font "Courier New" (bold))(invisible))
		(text "1" (rect 18 0 23 12)(font "Courier New" (bold))(invisible))
		(line (pt 16 8)(pt 16 0))
	)
	(drawing
		(line (pt 8 8)(pt 16 16))
		(line (pt 16 16)(pt 24 8))
		(line (pt 8 8)(pt 24 8))
	)
)
(symbol
	(rect 696 416 728 448)
	(text "GND" (rect 8 16 29 26)(font "Arial" (font_size 6)))
	(text "inst5" (rect 3 21 26 33)(font "Arial" )(invisible))
	(port
		(pt 16 0)
		(output)
		(text "1" (rect 18 0 23 12)(font "Courier New" (bold))(invisible))
		(text "1" (rect 18 0 23 12)(font "Courier New" (bold))(invisible))
		(line (pt 16 8)(pt 16 0))
	)
	(drawing
		(line (pt 8 8)(pt 16 16))
		(line (pt 16 16)(pt 24 8))
		(line (pt 8 8)(pt 24 8))
	)
)
(symbol
	(rect 760 416 792 448)
	(text "GND" (rect 8 16 29 26)(font "Arial" (font_size 6)))
	(text "inst6" (rect 3 21 26 33)(font "Arial" )(invisible))
	(port
		(pt 16 0)
		(output)
		(text "1" (rect 18 0 23 12)(font "Courier New" (bold))(invisible))
		(text "1" (rect 18 0 23 12)(font "Courier New" (bold))(invisible))
		(line (pt 16 8)(pt 16 0))
	)
	(drawing
		(line (pt 8 8)(pt 16 16))
		(line (pt 16 16)(pt 24 8))
		(line (pt 8 8)(pt 24 8))
	)
)
(symbol
	(rect 792 416 824 448)
	(text "GND" (rect 8 16 29 26)(font "Arial" (font_size 6)))
	(text "inst7" (rect 3 21 26 33)(font "Arial" )(invisible))
	(port
		(pt 16 0)
		(output)
		(text "1" (rect 18 0 23 12)(font "Courier New" (bold))(invisible))
		(text "1" (rect 18 0 23 12)(font "Courier New" (bold))(invisible))
		(line (pt 16 8)(pt 16 0))
	)
	(drawing
		(line (pt 8 8)(pt 16 16))
		(line (pt 16 16)(pt 24 8))
		(line (pt 8 8)(pt 24 8))
	)
)
(symbol
	(rect 664 480 696 512)
	(text "GND" (rect 8 4 29 14)(font "Arial" (font_size 6)))
	(text "inst8" (rect 3 -3 26 9)(font "Arial" )(invisible))
	(port
		(pt 16 32)
		(output)
		(text "1" (rect 18 0 23 12)(font "Courier New" (bold))(invisible))
		(text "1" (rect 18 18 23 30)(font "Courier New" (bold))(invisible))
		(line (pt 16 24)(pt 16 32))
	)
	(drawing
		(line (pt 8 24)(pt 16 16))
		(line (pt 16 16)(pt 24 24))
		(line (pt 8 24)(pt 24 24))
	)
	(flipx)
)
(symbol
	(rect 696 480 728 512)
	(text "GND" (rect 8 4 29 14)(font "Arial" (font_size 6)))
	(text "inst9" (rect 3 -3 26 9)(font "Arial" )(invisible))
	(port
		(pt 16 32)
		(output)
		(text "1" (rect 18 0 23 12)(font "Courier New" (bold))(invisible))
		(text "1" (rect 18 18 23 30)(font "Courier New" (bold))(invisible))
		(line (pt 16 24)(pt 16 32))
	)
	(drawing
		(line (pt 8 24)(pt 16 16))
		(line (pt 16 16)(pt 24 24))
		(line (pt 8 24)(pt 24 24))
	)
	(flipx)
)
(symbol
	(rect 760 480 792 512)
	(text "GND" (rect 8 4 29 14)(font "Arial" (font_size 6)))
	(text "inst12" (rect 3 -3 32 9)(font "Arial" )(invisible))
	(port
		(pt 16 32)
		(output)
		(text "1" (rect 18 0 23 12)(font "Courier New" (bold))(invisible))
		(text "1" (rect 18 18 23 30)(font "Courier New" (bold))(invisible))
		(line (pt 16 24)(pt 16 32))
	)
	(drawing
		(line (pt 8 24)(pt 16 16))
		(line (pt 16 16)(pt 24 24))
		(line (pt 8 24)(pt 24 24))
	)
	(flipx)
)
(symbol
	(rect 792 480 824 512)
	(text "GND" (rect 8 4 29 14)(font "Arial" (font_size 6)))
	(text "inst13" (rect 3 -3 32 9)(font "Arial" )(invisible))
	(port
		(pt 16 32)
		(output)
		(text "1" (rect 18 0 23 12)(font "Courier New" (bold))(invisible))
		(text "1" (rect 18 18 23 30)(font "Courier New" (bold))(invisible))
		(line (pt 16 24)(pt 16 32))
	)
	(drawing
		(line (pt 8 24)(pt 16 16))
		(line (pt 16 16)(pt 24 24))
		(line (pt 8 24)(pt 24 24))
	)
	(flipx)
)
(symbol
	(rect 696 792 760 840)
	(text "NOR2" (rect 1 0 26 10)(font "Arial" (font_size 6)))
	(text "inst16" (rect 3 37 32 49)(font "Arial" ))
	(port
		(pt 0 32)
		(input)
		(text "IN2" (rect 2 23 19 35)(font "Courier New" (bold))(invisible))
		(text "IN2" (rect 2 23 19 35)(font "Courier New" (bold))(invisible))
		(line (pt 0 32)(pt 14 32))
	)
	(port
		(pt 0 16)
		(input)
		(text "IN1" (rect 2 7 19 19)(font "Courier New" (bold))(invisible))
		(text "IN1" (rect 2 7 19 19)(font "Courier New" (bold))(invisible))
		(line (pt 0 16)(pt 14 16))
	)
	(port
		(pt 64 24)
		(output)
		(text "OUT" (rect 48 15 65 27)(font "Courier New" (bold))(invisible))
		(text "OUT" (rect 48 15 65 27)(font "Courier New" (bold))(invisible))
		(line (pt 54 24)(pt 64 24))
	)
	(drawing
		(line (pt 12 36)(pt 23 36))
		(line (pt 12 13)(pt 23 13))
		(arc (pt 46 24)(pt 23 13)(rect -6 13 53 72))
		(arc (pt 5 29)(pt 5 19)(rect -16 8 17 41))
		(arc (pt 23 35)(pt 46 24)(rect -6 -23 53 36))
		(circle (rect 46 20 54 28))
	)
)
(symbol
	(rect 800 752 864 800)
	(text "NOR2" (rect 1 0 26 10)(font "Arial" (font_size 6)))
	(text "inst27" (rect 3 37 32 49)(font "Arial" ))
	(port
		(pt 0 32)
		(input)
		(text "IN2" (rect 2 23 19 35)(font "Courier New" (bold))(invisible))
		(text "IN2" (rect 2 23 19 35)(font "Courier New" (bold))(invisible))
		(line (pt 0 32)(pt 14 32))
	)
	(port
		(pt 0 16)
		(input)
		(text "IN1" (rect 2 7 19 19)(font "Courier New" (bold))(invisible))
		(text "IN1" (rect 2 7 19 19)(font "Courier New" (bold))(invisible))
		(line (pt 0 16)(pt 14 16))
	)
	(port
		(pt 64 24)
		(output)
		(text "OUT" (rect 48 15 65 27)(font "Courier New" (bold))(invisible))
		(text "OUT" (rect 48 15 65 27)(font "Courier New" (bold))(invisible))
		(line (pt 54 24)(pt 64 24))
	)
	(drawing
		(line (pt 12 36)(pt 23 36))
		(line (pt 12 13)(pt 23 13))
		(arc (pt 46 24)(pt 23 13)(rect -6 13 53 72))
		(arc (pt 5 29)(pt 5 19)(rect -16 8 17 41))
		(arc (pt 23 35)(pt 46 24)(rect -6 -23 53 36))
		(circle (rect 46 20 54 28))
	)
)
(symbol
	(rect 1064 368 1320 568)
	(text "VideoRamFrameBuffer" (rect 4 0 157 16)(font "Arial" (font_size 10)))
	(text "inst10" (rect 8 184 37 196)(font "Arial" ))
	(port
		(pt 0 32)
		(input)
		(text "data_a[5..0]" (rect 0 0 67 14)(font "Arial" (font_size 8)))
		(text "data_a[5..0]" (rect 4 8 71 22)(font "Arial" (font_size 8)))
		(line (pt 0 32)(pt 112 32)(line_width 3))
	)
	(port
		(pt 0 48)
		(input)
		(text "address_a[17..0]" (rect 0 0 96 14)(font "Arial" (font_size 8)))
		(text "address_a[17..0]" (rect 4 24 100 38)(font "Arial" (font_size 8)))
		(line (pt 0 48)(pt 112 48)(line_width 3))
	)
	(port
		(pt 0 64)
		(input)
		(text "wren_a" (rect 0 0 44 14)(font "Arial" (font_size 8)))
		(text "wren_a" (rect 4 40 48 54)(font "Arial" (font_size 8)))
		(line (pt 0 64)(pt 112 64))
	)
	(port
		(pt 0 96)
		(input)
		(text "data_b[5..0]" (rect 0 0 67 14)(font "Arial" (font_size 8)))
		(text "data_b[5..0]" (rect 4 72 71 86)(font "Arial" (font_size 8)))
		(line (pt 0 96)(pt 112 96)(line_width 3))
	)
	(port
		(pt 0 112)
		(input)
		(text "address_b[17..0]" (rect 0 0 96 14)(font "Arial" (font_size 8)))
		(text "address_b[17..0]" (rect 4 88 100 102)(font "Arial" (font_size 8)))
		(line (pt 0 112)(pt 112 112)(line_width 3))
	)
	(port
		(pt 0 128)
		(input)
		(text "wren_b" (rect 0 0 44 14)(font "Arial" (font_size 8)))
		(text "wren_b" (rect 4 104 48 118)(font "Arial" (font_size 8)))
		(line (pt 0 128)(pt 112 128))
	)
	(port
		(pt 0 160)
		(input)
		(text "clock_a" (rect 0 0 43 14)(font "Arial" (font_size 8)))
		(text "clock_a" (rect 4 136 47 150)(font "Arial" (font_size 8)))
		(line (pt 0 160)(pt 92 160))
	)
	(port
		(pt 0 176)
		(input)
		(text "clock_b" (rect 0 0 43 14)(font "Arial" (font_size 8)))
		(text "clock_b" (rect 4 152 47 166)(font "Arial" (font_size 8)))
		(line (pt 0 176)(pt 104 176))
	)
	(port
		(pt 256 32)
		(output)
		(text "q_a[5..0]" (rect 0 0 49 14)(font "Arial" (font_size 8)))
		(text "q_a[5..0]" (rect 170 8 219 22)(font "Arial" (font_size 8)))
		(line (pt 256 32)(pt 168 32)(line_width 3))
	)
	(port
		(pt 256 96)
		(output)
		(text "q_b[5..0]" (rect 0 0 49 14)(font "Arial" (font_size 8)))
		(text "q_b[5..0]" (rect 171 72 220 86)(font "Arial" (font_size 8)))
		(line (pt 256 96)(pt 168 96)(line_width 3))
	)
	(drawing
		(text "262144 Word(s)" (rect 127 64 139 141)(font "Arial" )(vertical))
		(text "RAM" (rect 148 42 160 65)(font "Arial" )(vertical))
		(text "Block Type: AUTO" (rect 40 179 132 191)(font "Arial" ))
		(line (pt 128 24)(pt 168 24))
		(line (pt 168 24)(pt 168 144))
		(line (pt 168 144)(pt 128 144))
		(line (pt 128 144)(pt 128 24))
		(line (pt 112 27)(pt 120 27))
		(line (pt 120 27)(pt 120 39))
		(line (pt 120 39)(pt 112 39))
		(line (pt 112 39)(pt 112 27))
		(line (pt 112 34)(pt 114 36))
		(line (pt 114 36)(pt 112 38))
		(line (pt 92 36)(pt 112 36))
		(line (pt 120 32)(pt 128 32)(line_width 3))
		(line (pt 112 43)(pt 120 43))
		(line (pt 120 43)(pt 120 55))
		(line (pt 120 55)(pt 112 55))
		(line (pt 112 55)(pt 112 43))
		(line (pt 112 50)(pt 114 52))
		(line (pt 114 52)(pt 112 54))
		(line (pt 92 52)(pt 112 52))
		(line (pt 120 48)(pt 128 48)(line_width 3))
		(line (pt 112 59)(pt 120 59))
		(line (pt 120 59)(pt 120 71))
		(line (pt 120 71)(pt 112 71))
		(line (pt 112 71)(pt 112 59))
		(line (pt 112 66)(pt 114 68))
		(line (pt 114 68)(pt 112 70))
		(line (pt 92 68)(pt 112 68))
		(line (pt 120 64)(pt 128 64))
		(line (pt 112 91)(pt 120 91))
		(line (pt 120 91)(pt 120 103))
		(line (pt 120 103)(pt 112 103))
		(line (pt 112 103)(pt 112 91))
		(line (pt 112 98)(pt 114 100))
		(line (pt 114 100)(pt 112 102))
		(line (pt 104 100)(pt 112 100))
		(line (pt 120 96)(pt 128 96)(line_width 3))
		(line (pt 112 107)(pt 120 107))
		(line (pt 120 107)(pt 120 119))
		(line (pt 120 119)(pt 112 119))
		(line (pt 112 119)(pt 112 107))
		(line (pt 112 114)(pt 114 116))
		(line (pt 114 116)(pt 112 118))
		(line (pt 104 116)(pt 112 116))
		(line (pt 120 112)(pt 128 112)(line_width 3))
		(line (pt 112 123)(pt 120 123))
		(line (pt 120 123)(pt 120 135))
		(line (pt 120 135)(pt 112 135))
		(line (pt 112 135)(pt 112 123))
		(line (pt 112 130)(pt 114 132))
		(line (pt 114 132)(pt 112 134))
		(line (pt 104 132)(pt 112 132))
		(line (pt 120 128)(pt 128 128))
		(line (pt 92 36)(pt 92 161))
		(line (pt 104 100)(pt 104 177))
		(line (pt 0 0)(pt 257 0))
		(line (pt 257 0)(pt 257 202))
		(line (pt 0 202)(pt 257 202))
		(line (pt 0 0)(pt 0 202))
		(line (pt 0 0)(pt 0 0))
		(line (pt 0 0)(pt 0 0))
		(line (pt 0 0)(pt 0 0))
		(line (pt 0 0)(pt 0 0))
	)
)
(symbol
	(rect 1568 368 1824 568)
	(text "VideoRamFrameBuffer" (rect 4 0 157 16)(font "Arial" (font_size 10)))
	(text "inst11" (rect 8 184 37 196)(font "Arial" ))
	(port
		(pt 0 32)
		(input)
		(text "data_a[5..0]" (rect 0 0 67 14)(font "Arial" (font_size 8)))
		(text "data_a[5..0]" (rect 4 8 71 22)(font "Arial" (font_size 8)))
		(line (pt 0 32)(pt 112 32)(line_width 3))
	)
	(port
		(pt 0 48)
		(input)
		(text "address_a[17..0]" (rect 0 0 96 14)(font "Arial" (font_size 8)))
		(text "address_a[17..0]" (rect 4 24 100 38)(font "Arial" (font_size 8)))
		(line (pt 0 48)(pt 112 48)(line_width 3))
	)
	(port
		(pt 0 64)
		(input)
		(text "wren_a" (rect 0 0 44 14)(font "Arial" (font_size 8)))
		(text "wren_a" (rect 4 40 48 54)(font "Arial" (font_size 8)))
		(line (pt 0 64)(pt 112 64))
	)
	(port
		(pt 0 96)
		(input)
		(text "data_b[5..0]" (rect 0 0 67 14)(font "Arial" (font_size 8)))
		(text "data_b[5..0]" (rect 4 72 71 86)(font "Arial" (font_size 8)))
		(line (pt 0 96)(pt 112 96)(line_width 3))
	)
	(port
		(pt 0 112)
		(input)
		(text "address_b[17..0]" (rect 0 0 96 14)(font "Arial" (font_size 8)))
		(text "address_b[17..0]" (rect 4 88 100 102)(font "Arial" (font_size 8)))
		(line (pt 0 112)(pt 112 112)(line_width 3))
	)
	(port
		(pt 0 128)
		(input)
		(text "wren_b" (rect 0 0 44 14)(font "Arial" (font_size 8)))
		(text "wren_b" (rect 4 104 48 118)(font "Arial" (font_size 8)))
		(line (pt 0 128)(pt 112 128))
	)
	(port
		(pt 0 160)
		(input)
		(text "clock_a" (rect 0 0 43 14)(font "Arial" (font_size 8)))
		(text "clock_a" (rect 4 136 47 150)(font "Arial" (font_size 8)))
		(line (pt 0 160)(pt 92 160))
	)
	(port
		(pt 0 176)
		(input)
		(text "clock_b" (rect 0 0 43 14)(font "Arial" (font_size 8)))
		(text "clock_b" (rect 4 152 47 166)(font "Arial" (font_size 8)))
		(line (pt 0 176)(pt 104 176))
	)
	(port
		(pt 256 32)
		(output)
		(text "q_a[5..0]" (rect 0 0 49 14)(font "Arial" (font_size 8)))
		(text "q_a[5..0]" (rect 170 8 219 22)(font "Arial" (font_size 8)))
		(line (pt 256 32)(pt 168 32)(line_width 3))
	)
	(port
		(pt 256 96)
		(output)
		(text "q_b[5..0]" (rect 0 0 49 14)(font "Arial" (font_size 8)))
		(text "q_b[5..0]" (rect 171 72 220 86)(font "Arial" (font_size 8)))
		(line (pt 256 96)(pt 168 96)(line_width 3))
	)
	(drawing
		(text "262144 Word(s)" (rect 127 64 139 141)(font "Arial" )(vertical))
		(text "RAM" (rect 148 42 160 65)(font "Arial" )(vertical))
		(text "Block Type: AUTO" (rect 40 179 132 191)(font "Arial" ))
		(line (pt 128 24)(pt 168 24))
		(line (pt 168 24)(pt 168 144))
		(line (pt 168 144)(pt 128 144))
		(line (pt 128 144)(pt 128 24))
		(line (pt 112 27)(pt 120 27))
		(line (pt 120 27)(pt 120 39))
		(line (pt 120 39)(pt 112 39))
		(line (pt 112 39)(pt 112 27))
		(line (pt 112 34)(pt 114 36))
		(line (pt 114 36)(pt 112 38))
		(line (pt 92 36)(pt 112 36))
		(line (pt 120 32)(pt 128 32)(line_width 3))
		(line (pt 112 43)(pt 120 43))
		(line (pt 120 43)(pt 120 55))
		(line (pt 120 55)(pt 112 55))
		(line (pt 112 55)(pt 112 43))
		(line (pt 112 50)(pt 114 52))
		(line (pt 114 52)(pt 112 54))
		(line (pt 92 52)(pt 112 52))
		(line (pt 120 48)(pt 128 48)(line_width 3))
		(line (pt 112 59)(pt 120 59))
		(line (pt 120 59)(pt 120 71))
		(line (pt 120 71)(pt 112 71))
		(line (pt 112 71)(pt 112 59))
		(line (pt 112 66)(pt 114 68))
		(line (pt 114 68)(pt 112 70))
		(line (pt 92 68)(pt 112 68))
		(line (pt 120 64)(pt 128 64))
		(line (pt 112 91)(pt 120 91))
		(line (pt 120 91)(pt 120 103))
		(line (pt 120 103)(pt 112 103))
		(line (pt 112 103)(pt 112 91))
		(line (pt 112 98)(pt 114 100))
		(line (pt 114 100)(pt 112 102))
		(line (pt 104 100)(pt 112 100))
		(line (pt 120 96)(pt 128 96)(line_width 3))
		(line (pt 112 107)(pt 120 107))
		(line (pt 120 107)(pt 120 119))
		(line (pt 120 119)(pt 112 119))
		(line (pt 112 119)(pt 112 107))
		(line (pt 112 114)(pt 114 116))
		(line (pt 114 116)(pt 112 118))
		(line (pt 104 116)(pt 112 116))
		(line (pt 120 112)(pt 128 112)(line_width 3))
		(line (pt 112 123)(pt 120 123))
		(line (pt 120 123)(pt 120 135))
		(line (pt 120 135)(pt 112 135))
		(line (pt 112 135)(pt 112 123))
		(line (pt 112 130)(pt 114 132))
		(line (pt 114 132)(pt 112 134))
		(line (pt 104 132)(pt 112 132))
		(line (pt 120 128)(pt 128 128))
		(line (pt 92 36)(pt 92 161))
		(line (pt 104 100)(pt 104 177))
		(line (pt 0 0)(pt 257 0))
		(line (pt 257 0)(pt 257 202))
		(line (pt 0 202)(pt 257 202))
		(line (pt 0 0)(pt 0 202))
		(line (pt 0 0)(pt 0 0))
		(line (pt 0 0)(pt 0 0))
		(line (pt 0 0)(pt 0 0))
		(line (pt 0 0)(pt 0 0))
	)
)
(connector
	(pt 904 288)
	(pt 904 312)
)
(connector
	(text "VGA_Data[14]" (rect 696 312 708 382)(font "Arial" )(vertical))
	(pt 712 248)
	(pt 712 416)
)
(connector
	(text "VGA_Data[6]" (rect 792 312 804 376)(font "Arial" )(vertical))
	(pt 808 248)
	(pt 808 416)
)
(connector
	(text "GraphicsDataOut[14]" (rect 697 528 709 631)(font "Arial" )(vertical))
	(pt 712 512)
	(pt 712 712)
)
(connector
	(text "VGA_Data[15]" (rect 664 312 676 382)(font "Arial" )(vertical))
	(pt 680 248)
	(pt 680 416)
)
(connector
	(text "VGA_Data[7]" (rect 760 312 772 376)(font "Arial" )(vertical))
	(pt 776 248)
	(pt 776 416)
)
(connector
	(text "GraphicsDataOut[15]" (rect 664 529 676 632)(font "Arial" )(vertical))
	(pt 680 712)
	(pt 680 512)
)
(connector
	(text "GraphicsDataOut[7]" (rect 761 528 773 625)(font "Arial" )(vertical))
	(pt 776 712)
	(pt 776 512)
)
(connector
	(text "GraphicsDataOut[6]" (rect 794 527 806 624)(font "Arial" )(vertical))
	(pt 808 512)
	(pt 808 712)
)
(connector
	(pt 592 808)
	(pt 696 808)
)
(connector
	(pt 680 784)
	(pt 800 784)
)
(connector
	(pt 680 824)
	(pt 680 784)
)
(connector
	(pt 592 768)
	(pt 800 768)
)
(connector
	(pt 584 288)
	(pt 904 288)
)
(connector
	(pt 584 248)
	(pt 680 248)
	(bus)
)
(connector
	(pt 680 248)
	(pt 712 248)
	(bus)
)
(connector
	(pt 712 248)
	(pt 776 248)
	(bus)
)
(connector
	(pt 776 248)
	(pt 808 248)
	(bus)
)
(connector
	(pt 584 712)
	(pt 680 712)
	(bus)
)
(connector
	(pt 680 712)
	(pt 712 712)
	(bus)
)
(connector
	(pt 712 712)
	(pt 776 712)
	(bus)
)
(connector
	(pt 776 712)
	(pt 808 712)
	(bus)
)
(connector
	(pt 592 824)
	(pt 680 824)
)
(connector
	(pt 680 824)
	(pt 696 824)
)
(connector
	(text "GraphicsDataOut[13..8]" (rect 1343 516 1355 632)(font "Arial" )(vertical))
	(pt 1368 464)
	(pt 1368 712)
	(bus)
)
(connector
	(pt 1368 464)
	(pt 1320 464)
	(bus)
)
(connector
	(text "VGA_Data[13..8]" (rect 1368 286 1380 369)(font "Arial" )(vertical))
	(pt 1392 248)
	(pt 1392 400)
	(bus)
)
(connector
	(pt 1392 400)
	(pt 1320 400)
	(bus)
)
(connector
	(pt 808 712)
	(pt 1368 712)
	(bus)
)
(connector
	(pt 1368 712)
	(pt 1928 712)
	(bus)
)
(connector
	(pt 808 248)
	(pt 1392 248)
	(bus)
)
(connector
	(pt 1392 248)
	(pt 1912 248)
	(bus)
)
(connector
	(pt 760 816)
	(pt 1504 816)
)
(connector
	(text "GraphicsDataIn[13..8]" (rect 984 574 996 682)(font "Arial" )(vertical))
	(pt 1008 696)
	(pt 1008 464)
	(bus)
)
(connector
	(pt 1064 464)
	(pt 1008 464)
	(bus)
)
(connector
	(pt 584 696)
	(pt 1008 696)
	(bus)
)
(connector
	(pt 1008 696)
	(pt 1488 696)
	(bus)
)
(connector
	(pt 1040 528)
	(pt 1040 288)
)
(connector
	(pt 1040 528)
	(pt 1064 528)
)
(connector
	(pt 904 288)
	(pt 1040 288)
)
(connector
	(pt 1040 288)
	(pt 1520 288)
)
(connector
	(pt 1024 544)
	(pt 1024 312)
)
(connector
	(pt 1024 544)
	(pt 1064 544)
)
(connector
	(pt 904 312)
	(pt 1024 312)
)
(connector
	(pt 1024 312)
	(pt 1512 312)
)
(connector
	(pt 1064 496)
	(pt 1056 496)
)
(connector
	(pt 1064 432)
	(pt 936 432)
)
(connector
	(pt 1056 776)
	(pt 864 776)
)
(connector
	(pt 1056 496)
	(pt 1056 776)
)
(connector
	(pt 952 680)
	(pt 952 480)
	(bus)
)
(connector
	(pt 1064 480)
	(pt 952 480)
	(bus)
)
(connector
	(pt 584 680)
	(pt 952 680)
	(bus)
)
(connector
	(pt 952 680)
	(pt 1432 680)
	(bus)
)
(connector
	(pt 984 416)
	(pt 984 264)
	(bus)
)
(connector
	(pt 984 416)
	(pt 1064 416)
	(bus)
)
(connector
	(pt 584 264)
	(pt 984 264)
	(bus)
)
(connector
	(pt 984 264)
	(pt 1456 264)
	(bus)
)
(connector
	(text "GraphicsDataOut[5..0]" (rect 1904 555 1916 665)(font "Arial" )(vertical))
	(pt 1928 712)
	(pt 1928 464)
	(bus)
)
(connector
	(text "VGA_Data[5..0]" (rect 1885 273 1897 350)(font "Arial" )(vertical))
	(pt 1912 248)
	(pt 1912 400)
	(bus)
)
(connector
	(pt 1928 464)
	(pt 1824 464)
	(bus)
)
(connector
	(pt 1912 400)
	(pt 1824 400)
	(bus)
)
(connector
	(pt 1456 264)
	(pt 1456 416)
	(bus)
)
(connector
	(text "GraphicsDataIn[5..0]" (rect 1464 564 1476 666)(font "Arial" )(vertical))
	(pt 1488 696)
	(pt 1488 464)
	(bus)
)
(connector
	(pt 1504 816)
	(pt 1504 496)
)
(connector
	(pt 1520 288)
	(pt 1520 528)
)
(connector
	(pt 1512 312)
	(pt 1512 544)
)
(connector
	(pt 1432 680)
	(pt 1432 480)
	(bus)
)
(connector
	(pt 1456 416)
	(pt 1568 416)
	(bus)
)
(connector
	(pt 1448 432)
	(pt 1568 432)
)
(connector
	(pt 1504 496)
	(pt 1568 496)
)
(connector
	(pt 1520 528)
	(pt 1568 528)
)
(connector
	(pt 1512 544)
	(pt 1568 544)
)
(connector
	(pt 1488 464)
	(pt 1568 464)
	(bus)
)
(connector
	(pt 1432 480)
	(pt 1568 480)
	(bus)
)
(junction (pt 1040 288))
(junction (pt 1024 312))
(junction (pt 904 288))
(junction (pt 984 264))
(junction (pt 808 248))
(junction (pt 680 248))
(junction (pt 712 248))
(junction (pt 776 248))
(junction (pt 680 712))
(junction (pt 712 712))
(junction (pt 776 712))
(junction (pt 808 712))
(junction (pt 680 824))
(junction (pt 1368 712))
(junction (pt 1392 248))
(junction (pt 1008 696))
(junction (pt 952 680))
(text "Lower Byte" (rect 1608 544 1675 558)(font "Arial" (font_size 8)))
(text "Upper Byte" (rect 1136 552 1199 566)(font "Arial" (font_size 8)))
