/*
WARNING: Do NOT edit the input and output ports in this file in a text
editor if you plan to continue editing the block that represents it in
the Block Editor! File corruption is VERY likely to occur.
*/
/*
Copyright (C) 2018  Intel Corporation. All rights reserved.
Your use of Intel Corporation's design tools, logic functions 
and other software and tools, and its AMPP partner logic 
functions, and any output files from any of the foregoing 
(including device programming or simulation files), and any 
associated documentation or information are expressly subject 
to the terms and conditions of the Intel Program License 
Subscription Agreement, the Intel Quartus Prime License Agreement,
the Intel FPGA IP License Agreement, or other applicable license
agreement, including, without limitation, that your use is for
the sole purpose of programming logic devices manufactured by
Intel and sold by Intel or its authorized distributors.  Please
refer to the applicable agreement for further details.
*/
(header "graphic" (version "1.4"))
(pin
	(input)
	(rect 304 696 472 712)
	(text "INPUT" (rect 133 0 161 10)(font "Arial" (font_size 6)))
	(text "Reset_L" (rect 5 0 46 12)(font "Arial" ))
	(pt 168 8)
	(drawing
		(line (pt 92 12)(pt 117 12))
		(line (pt 92 4)(pt 117 4))
		(line (pt 121 8)(pt 168 8))
		(line (pt 92 12)(pt 92 4))
		(line (pt 117 4)(pt 121 8))
		(line (pt 117 12)(pt 121 8))
	)
	(text "VCC" (rect 136 7 156 17)(font "Arial" (font_size 6)))
)
(pin
	(input)
	(rect 320 304 488 320)
	(text "INPUT" (rect 133 0 161 10)(font "Arial" (font_size 6)))
	(text "Clock_50Mhz" (rect 5 0 69 12)(font "Arial" ))
	(pt 168 8)
	(drawing
		(line (pt 92 12)(pt 117 12))
		(line (pt 92 4)(pt 117 4))
		(line (pt 121 8)(pt 168 8))
		(line (pt 92 12)(pt 92 4))
		(line (pt 117 4)(pt 121 8))
		(line (pt 117 12)(pt 121 8))
	)
	(text "VCC" (rect 136 7 156 17)(font "Arial" (font_size 6)))
)
(pin
	(input)
	(rect 1608 1008 1777 1024)
	(text "INPUT" (rect 7 0 35 10)(font "Arial" (font_size 6)))
	(text "RS232_RxData" (rect 88 0 164 12)(font "Arial" ))
	(pt 0 8)
	(drawing
		(line (pt 76 12)(pt 51 12))
		(line (pt 76 4)(pt 51 4))
		(line (pt 47 8)(pt 0 8))
		(line (pt 76 12)(pt 76 4))
		(line (pt 51 4)(pt 47 8))
		(line (pt 51 12)(pt 47 8))
	)
	(flipy)
	(text "VCC" (rect 12 7 32 17)(font "Arial" (font_size 6)))
)
(pin
	(input)
	(rect 296 664 464 680)
	(text "INPUT" (rect 133 0 161 10)(font "Arial" (font_size 6)))
	(text "WE_L" (rect 5 0 34 12)(font "Arial" ))
	(pt 168 8)
	(drawing
		(line (pt 92 12)(pt 117 12))
		(line (pt 92 4)(pt 117 4))
		(line (pt 121 8)(pt 168 8))
		(line (pt 92 12)(pt 92 4))
		(line (pt 117 4)(pt 121 8))
		(line (pt 117 12)(pt 121 8))
	)
	(text "VCC" (rect 136 7 156 17)(font "Arial" (font_size 6)))
)
(pin
	(input)
	(rect 320 328 488 344)
	(text "INPUT" (rect 133 0 161 10)(font "Arial" (font_size 6)))
	(text "DataIn[7..0]" (rect 5 0 64 12)(font "Arial" ))
	(pt 168 8)
	(drawing
		(line (pt 92 12)(pt 117 12))
		(line (pt 92 4)(pt 117 4))
		(line (pt 121 8)(pt 168 8))
		(line (pt 92 12)(pt 92 4))
		(line (pt 117 4)(pt 121 8))
		(line (pt 117 12)(pt 121 8))
	)
	(text "VCC" (rect 136 7 156 17)(font "Arial" (font_size 6)))
)
(pin
	(input)
	(rect 1488 1432 1656 1448)
	(text "INPUT" (rect 7 0 35 10)(font "Arial" (font_size 6)))
	(text "GPS_RxData" (rect 88 0 154 12)(font "Arial" ))
	(pt 0 8)
	(drawing
		(line (pt 76 12)(pt 51 12))
		(line (pt 76 4)(pt 51 4))
		(line (pt 47 8)(pt 0 8))
		(line (pt 76 12)(pt 76 4))
		(line (pt 51 4)(pt 47 8))
		(line (pt 51 12)(pt 47 8))
	)
	(flipy)
	(text "VCC" (rect 12 7 32 17)(font "Arial" (font_size 6)))
)
(pin
	(input)
	(rect 1568 1976 1754 1992)
	(text "INPUT" (rect 7 0 35 10)(font "Arial" (font_size 6)))
	(text "BlueTooth_RxData" (rect 88 0 180 12)(font "Arial" ))
	(pt 0 8)
	(drawing
		(line (pt 76 12)(pt 51 12))
		(line (pt 76 4)(pt 51 4))
		(line (pt 47 8)(pt 0 8))
		(line (pt 76 12)(pt 76 4))
		(line (pt 51 4)(pt 47 8))
		(line (pt 51 12)(pt 47 8))
	)
	(flipy)
	(text "VCC" (rect 12 7 32 17)(font "Arial" (font_size 6)))
)
(pin
	(input)
	(rect 312 528 480 544)
	(text "INPUT" (rect 133 0 161 10)(font "Arial" (font_size 6)))
	(text "Address[15..0]" (rect 5 0 76 12)(font "Arial" ))
	(pt 168 8)
	(drawing
		(line (pt 92 12)(pt 117 12))
		(line (pt 92 4)(pt 117 4))
		(line (pt 121 8)(pt 168 8))
		(line (pt 92 12)(pt 92 4))
		(line (pt 117 4)(pt 121 8))
		(line (pt 117 12)(pt 121 8))
	)
	(text "VCC" (rect 136 7 156 17)(font "Arial" (font_size 6)))
)
(pin
	(input)
	(rect 312 544 480 560)
	(text "INPUT" (rect 133 0 161 10)(font "Arial" (font_size 6)))
	(text "IOSelect_H" (rect 5 0 61 12)(font "Arial" ))
	(pt 168 8)
	(drawing
		(line (pt 92 12)(pt 117 12))
		(line (pt 92 4)(pt 117 4))
		(line (pt 121 8)(pt 168 8))
		(line (pt 92 12)(pt 92 4))
		(line (pt 117 4)(pt 121 8))
		(line (pt 117 12)(pt 121 8))
	)
	(text "VCC" (rect 136 7 156 17)(font "Arial" (font_size 6)))
)
(pin
	(input)
	(rect 312 560 480 576)
	(text "INPUT" (rect 133 0 161 10)(font "Arial" (font_size 6)))
	(text "ByteSelect_L" (rect 5 0 71 12)(font "Arial" ))
	(pt 168 8)
	(drawing
		(line (pt 92 12)(pt 117 12))
		(line (pt 92 4)(pt 117 4))
		(line (pt 121 8)(pt 168 8))
		(line (pt 92 12)(pt 92 4))
		(line (pt 117 4)(pt 121 8))
		(line (pt 117 12)(pt 121 8))
	)
	(text "VCC" (rect 136 7 156 17)(font "Arial" (font_size 6)))
)
(pin
	(input)
	(rect 1472 2400 1707 2416)
	(text "INPUT" (rect 7 0 35 10)(font "Arial" (font_size 6)))
	(text "TouchScreen_RxData" (rect 88 0 195 12)(font "Arial" ))
	(pt 0 8)
	(drawing
		(line (pt 76 12)(pt 51 12))
		(line (pt 76 4)(pt 51 4))
		(line (pt 47 8)(pt 0 8))
		(line (pt 76 12)(pt 76 4))
		(line (pt 51 4)(pt 47 8))
		(line (pt 51 12)(pt 47 8))
	)
	(flipy)
	(text "VCC" (rect 12 7 32 17)(font "Arial" (font_size 6)))
)
(pin
	(output)
	(rect 1600 976 1776 992)
	(text "OUTPUT" (rect 1 0 39 10)(font "Arial" (font_size 6)))
	(text "RS232_TxData" (rect 90 0 164 12)(font "Arial" ))
	(pt 0 8)
	(drawing
		(line (pt 0 8)(pt 52 8))
		(line (pt 52 4)(pt 78 4))
		(line (pt 52 12)(pt 78 12))
		(line (pt 52 12)(pt 52 4))
		(line (pt 78 4)(pt 82 8))
		(line (pt 82 8)(pt 78 12))
		(line (pt 78 12)(pt 82 8))
	)
)
(pin
	(output)
	(rect 1528 480 1704 496)
	(text "OUTPUT" (rect 1 0 39 10)(font "Arial" (font_size 6)))
	(text "DataOut[7..0]" (rect 90 0 157 12)(font "Arial" ))
	(pt 0 8)
	(drawing
		(line (pt 0 8)(pt 52 8))
		(line (pt 52 4)(pt 78 4))
		(line (pt 52 12)(pt 78 12))
		(line (pt 52 12)(pt 52 4))
		(line (pt 78 4)(pt 82 8))
		(line (pt 82 8)(pt 78 12))
		(line (pt 78 12)(pt 82 8))
	)
)
(pin
	(output)
	(rect 1488 1400 1664 1416)
	(text "OUTPUT" (rect 1 0 39 10)(font "Arial" (font_size 6)))
	(text "GPS_TxData" (rect 90 0 153 12)(font "Arial" ))
	(pt 0 8)
	(drawing
		(line (pt 0 8)(pt 52 8))
		(line (pt 52 4)(pt 78 4))
		(line (pt 52 12)(pt 78 12))
		(line (pt 52 12)(pt 52 4))
		(line (pt 78 4)(pt 82 8))
		(line (pt 82 8)(pt 78 12))
		(line (pt 78 12)(pt 82 8))
	)
)
(pin
	(output)
	(rect 1568 1952 1753 1968)
	(text "OUTPUT" (rect 1 0 39 10)(font "Arial" (font_size 6)))
	(text "BlueTooth_TxData" (rect 90 0 179 12)(font "Arial" ))
	(pt 0 8)
	(drawing
		(line (pt 0 8)(pt 52 8))
		(line (pt 52 4)(pt 78 4))
		(line (pt 52 12)(pt 78 12))
		(line (pt 52 12)(pt 52 4))
		(line (pt 78 4)(pt 82 8))
		(line (pt 82 8)(pt 78 12))
		(line (pt 78 12)(pt 82 8))
	)
)
(pin
	(output)
	(rect 1464 2376 1699 2392)
	(text "OUTPUT" (rect 1 0 39 10)(font "Arial" (font_size 6)))
	(text "TouchScreen_TxData" (rect 90 0 195 12)(font "Arial" ))
	(pt 0 8)
	(drawing
		(line (pt 0 8)(pt 52 8))
		(line (pt 52 4)(pt 78 4))
		(line (pt 52 12)(pt 78 12))
		(line (pt 52 12)(pt 52 4))
		(line (pt 78 4)(pt 82 8))
		(line (pt 82 8)(pt 78 12))
		(line (pt 78 12)(pt 82 8))
	)
)
(pin
	(output)
	(rect 1992 560 2168 576)
	(text "OUTPUT" (rect 1 0 39 10)(font "Arial" (font_size 6)))
	(text "IRQ_H" (rect 90 0 124 12)(font "Arial" ))
	(pt 0 8)
	(drawing
		(line (pt 0 8)(pt 52 8))
		(line (pt 52 4)(pt 78 4))
		(line (pt 52 12)(pt 78 12))
		(line (pt 52 12)(pt 52 4))
		(line (pt 78 4)(pt 82 8))
		(line (pt 82 8)(pt 78 12))
		(line (pt 78 12)(pt 82 8))
	)
)
(symbol
	(rect 560 504 832 616)
	(text "SerialIODecoder" (rect 5 0 85 12)(font "Arial" ))
	(text "inst" (rect 8 96 25 108)(font "Arial" ))
	(port
		(pt 0 32)
		(input)
		(text "Address[15..0]" (rect 0 0 71 12)(font "Arial" ))
		(text "Address[15..0]" (rect 21 27 92 39)(font "Arial" ))
		(line (pt 0 32)(pt 16 32)(line_width 3))
	)
	(port
		(pt 0 48)
		(input)
		(text "IOSelect_H" (rect 0 0 56 12)(font "Arial" ))
		(text "IOSelect_H" (rect 21 43 77 55)(font "Arial" ))
		(line (pt 0 48)(pt 16 48))
	)
	(port
		(pt 0 64)
		(input)
		(text "ByteSelect_L" (rect 0 0 66 12)(font "Arial" ))
		(text "ByteSelect_L" (rect 21 59 87 71)(font "Arial" ))
		(line (pt 0 64)(pt 16 64))
	)
	(port
		(pt 272 32)
		(output)
		(text "RS232_Port_Enable" (rect 0 0 97 12)(font "Arial" ))
		(text "RS232_Port_Enable" (rect 169 27 266 39)(font "Arial" ))
		(line (pt 272 32)(pt 256 32))
	)
	(port
		(pt 272 48)
		(output)
		(text "GPS_Port_Enable" (rect 0 0 87 12)(font "Arial" ))
		(text "GPS_Port_Enable" (rect 178 43 265 55)(font "Arial" ))
		(line (pt 272 48)(pt 256 48))
	)
	(port
		(pt 272 64)
		(output)
		(text "Bluetooth_Port_Enable" (rect 0 0 110 12)(font "Arial" ))
		(text "Bluetooth_Port_Enable" (rect 158 59 268 71)(font "Arial" ))
		(line (pt 272 64)(pt 256 64))
	)
	(port
		(pt 272 80)
		(output)
		(text "TouchScreen_Port_Enable" (rect 0 0 128 12)(font "Arial" ))
		(text "TouchScreen_Port_Enable" (rect 143 75 271 87)(font "Arial" ))
		(line (pt 272 80)(pt 256 80))
	)
	(drawing
		(rectangle (rect 16 16 256 96))
	)
)
(symbol
	(rect 984 648 1200 920)
	(text "gh_uart_16550_wb_wrapper" (rect 5 0 139 12)(font "Arial" ))
	(text "inst1" (rect 8 256 30 273)(font "Intel Clear" ))
	(port
		(pt 0 32)
		(input)
		(text "wb_clk_i" (rect 0 0 41 12)(font "Arial" ))
		(text "wb_clk_i" (rect 21 27 62 39)(font "Arial" ))
		(line (pt 0 32)(pt 16 32))
	)
	(port
		(pt 0 48)
		(input)
		(text "wb_rst_i" (rect 0 0 40 12)(font "Arial" ))
		(text "wb_rst_i" (rect 21 43 61 55)(font "Arial" ))
		(line (pt 0 48)(pt 16 48))
	)
	(port
		(pt 0 64)
		(input)
		(text "wb_stb_i" (rect 0 0 42 12)(font "Arial" ))
		(text "wb_stb_i" (rect 21 59 63 71)(font "Arial" ))
		(line (pt 0 64)(pt 16 64))
	)
	(port
		(pt 0 80)
		(input)
		(text "wb_cyc_i" (rect 0 0 46 12)(font "Arial" ))
		(text "wb_cyc_i" (rect 21 75 67 87)(font "Arial" ))
		(line (pt 0 80)(pt 16 80))
	)
	(port
		(pt 0 96)
		(input)
		(text "wb_we_i" (rect 0 0 40 12)(font "Arial" ))
		(text "wb_we_i" (rect 21 91 61 103)(font "Arial" ))
		(line (pt 0 96)(pt 16 96))
	)
	(port
		(pt 0 112)
		(input)
		(text "wb_adr_i[2..0]" (rect 0 0 68 12)(font "Arial" ))
		(text "wb_adr_i[2..0]" (rect 21 107 89 119)(font "Arial" ))
		(line (pt 0 112)(pt 16 112)(line_width 3))
	)
	(port
		(pt 0 128)
		(input)
		(text "wb_dat_i[7..0]" (rect 0 0 68 12)(font "Arial" ))
		(text "wb_dat_i[7..0]" (rect 21 123 89 135)(font "Arial" ))
		(line (pt 0 128)(pt 16 128)(line_width 3))
	)
	(port
		(pt 0 144)
		(input)
		(text "BR_clk" (rect 0 0 35 12)(font "Arial" ))
		(text "BR_clk" (rect 21 139 56 151)(font "Arial" ))
		(line (pt 0 144)(pt 16 144))
	)
	(port
		(pt 0 160)
		(input)
		(text "sRX" (rect 0 0 20 12)(font "Arial" ))
		(text "sRX" (rect 21 155 41 167)(font "Arial" ))
		(line (pt 0 160)(pt 16 160))
	)
	(port
		(pt 0 176)
		(input)
		(text "CTSn" (rect 0 0 27 12)(font "Arial" ))
		(text "CTSn" (rect 21 171 48 183)(font "Arial" ))
		(line (pt 0 176)(pt 16 176))
	)
	(port
		(pt 0 192)
		(input)
		(text "DSRn" (rect 0 0 29 12)(font "Arial" ))
		(text "DSRn" (rect 21 187 50 199)(font "Arial" ))
		(line (pt 0 192)(pt 16 192))
	)
	(port
		(pt 0 208)
		(input)
		(text "RIn" (rect 0 0 17 12)(font "Arial" ))
		(text "RIn" (rect 21 203 38 215)(font "Arial" ))
		(line (pt 0 208)(pt 16 208))
	)
	(port
		(pt 0 224)
		(input)
		(text "DCDn" (rect 0 0 30 12)(font "Arial" ))
		(text "DCDn" (rect 21 219 51 231)(font "Arial" ))
		(line (pt 0 224)(pt 16 224))
	)
	(port
		(pt 216 32)
		(output)
		(text "wb_ack_o" (rect 0 0 48 12)(font "Arial" ))
		(text "wb_ack_o" (rect 155 27 203 39)(font "Arial" ))
		(line (pt 216 32)(pt 200 32))
	)
	(port
		(pt 216 48)
		(output)
		(text "wb_dat_o[7..0]" (rect 0 0 71 12)(font "Arial" ))
		(text "wb_dat_o[7..0]" (rect 135 43 206 55)(font "Arial" ))
		(line (pt 216 48)(pt 200 48)(line_width 3))
	)
	(port
		(pt 216 64)
		(output)
		(text "sTX" (rect 0 0 17 12)(font "Arial" ))
		(text "sTX" (rect 181 59 198 71)(font "Arial" ))
		(line (pt 216 64)(pt 200 64))
	)
	(port
		(pt 216 80)
		(output)
		(text "DTRn" (rect 0 0 28 12)(font "Arial" ))
		(text "DTRn" (rect 172 75 200 87)(font "Arial" ))
		(line (pt 216 80)(pt 200 80))
	)
	(port
		(pt 216 96)
		(output)
		(text "RTSn" (rect 0 0 27 12)(font "Arial" ))
		(text "RTSn" (rect 173 91 200 103)(font "Arial" ))
		(line (pt 216 96)(pt 200 96))
	)
	(port
		(pt 216 112)
		(output)
		(text "OUT1n" (rect 0 0 34 12)(font "Arial" ))
		(text "OUT1n" (rect 167 107 201 119)(font "Arial" ))
		(line (pt 216 112)(pt 200 112))
	)
	(port
		(pt 216 128)
		(output)
		(text "OUT2n" (rect 0 0 34 12)(font "Arial" ))
		(text "OUT2n" (rect 167 123 201 135)(font "Arial" ))
		(line (pt 216 128)(pt 200 128))
	)
	(port
		(pt 216 144)
		(output)
		(text "TXRDYn" (rect 0 0 42 12)(font "Arial" ))
		(text "TXRDYn" (rect 160 139 202 151)(font "Arial" ))
		(line (pt 216 144)(pt 200 144))
	)
	(port
		(pt 216 160)
		(output)
		(text "RXRDYn" (rect 0 0 44 12)(font "Arial" ))
		(text "RXRDYn" (rect 158 155 202 167)(font "Arial" ))
		(line (pt 216 160)(pt 200 160))
	)
	(port
		(pt 216 176)
		(output)
		(text "IRQ" (rect 0 0 20 12)(font "Arial" ))
		(text "IRQ" (rect 179 171 199 183)(font "Arial" ))
		(line (pt 216 176)(pt 200 176))
	)
	(port
		(pt 216 192)
		(output)
		(text "B_CLK" (rect 0 0 34 12)(font "Arial" ))
		(text "B_CLK" (rect 167 187 201 199)(font "Arial" ))
		(line (pt 216 192)(pt 200 192))
	)
	(drawing
		(rectangle (rect 16 16 200 256))
	)
)
(symbol
	(rect 920 928 952 960)
	(text "GND" (rect 8 16 29 26)(font "Arial" (font_size 6)))
	(text "inst3" (rect 3 21 25 38)(font "Intel Clear" )(invisible))
	(port
		(pt 16 0)
		(output)
		(text "1" (rect 18 0 23 12)(font "Courier New" (bold))(invisible))
		(text "1" (rect 18 0 23 12)(font "Courier New" (bold))(invisible))
		(line (pt 16 8)(pt 16 0))
	)
	(drawing
		(line (pt 8 8)(pt 16 16))
		(line (pt 16 16)(pt 24 8))
		(line (pt 8 8)(pt 24 8))
	)
)
(symbol
	(rect 672 656 720 688)
	(text "NOT" (rect 1 0 21 10)(font "Arial" (font_size 6)))
	(text "inst4" (rect 3 21 25 38)(font "Intel Clear" ))
	(port
		(pt 0 16)
		(input)
		(text "IN" (rect 2 7 13 19)(font "Courier New" (bold))(invisible))
		(text "IN" (rect 2 7 13 19)(font "Courier New" (bold))(invisible))
		(line (pt 0 16)(pt 13 16))
	)
	(port
		(pt 48 16)
		(output)
		(text "OUT" (rect 32 7 49 19)(font "Courier New" (bold))(invisible))
		(text "OUT" (rect 32 7 49 19)(font "Courier New" (bold))(invisible))
		(line (pt 39 16)(pt 48 16))
	)
	(drawing
		(line (pt 13 25)(pt 13 7))
		(line (pt 13 7)(pt 31 16))
		(line (pt 13 25)(pt 31 16))
		(circle (rect 31 12 39 20))
	)
)
(symbol
	(rect 672 680 720 712)
	(text "NOT" (rect 1 0 21 10)(font "Arial" (font_size 6)))
	(text "inst5" (rect 3 21 25 38)(font "Intel Clear" ))
	(port
		(pt 0 16)
		(input)
		(text "IN" (rect 2 7 13 19)(font "Courier New" (bold))(invisible))
		(text "IN" (rect 2 7 13 19)(font "Courier New" (bold))(invisible))
		(line (pt 0 16)(pt 13 16))
	)
	(port
		(pt 48 16)
		(output)
		(text "OUT" (rect 32 7 49 19)(font "Courier New" (bold))(invisible))
		(text "OUT" (rect 32 7 49 19)(font "Courier New" (bold))(invisible))
		(line (pt 39 16)(pt 48 16))
	)
	(drawing
		(line (pt 13 25)(pt 13 7))
		(line (pt 13 7)(pt 31 16))
		(line (pt 13 25)(pt 31 16))
		(circle (rect 31 12 39 20))
	)
)
(symbol
	(rect 1472 528 1536 608)
	(text "OR4" (rect 1 0 19 10)(font "Arial" (font_size 6)))
	(text "inst7" (rect 3 69 25 86)(font "Intel Clear" ))
	(port
		(pt 0 16)
		(input)
		(text "IN1" (rect 2 7 19 19)(font "Courier New" (bold))(invisible))
		(text "IN1" (rect 2 7 19 19)(font "Courier New" (bold))(invisible))
		(line (pt 0 16)(pt 13 16))
	)
	(port
		(pt 0 48)
		(input)
		(text "IN3" (rect 2 39 19 51)(font "Courier New" (bold))(invisible))
		(text "IN3" (rect 2 39 19 51)(font "Courier New" (bold))(invisible))
		(line (pt 0 48)(pt 15 48))
	)
	(port
		(pt 0 64)
		(input)
		(text "IN4" (rect 2 55 19 67)(font "Courier New" (bold))(invisible))
		(text "IN4" (rect 2 55 19 67)(font "Courier New" (bold))(invisible))
		(line (pt 0 64)(pt 13 64))
	)
	(port
		(pt 0 32)
		(input)
		(text "IN2" (rect 2 23 19 35)(font "Courier New" (bold))(invisible))
		(text "IN2" (rect 2 23 19 35)(font "Courier New" (bold))(invisible))
		(line (pt 0 32)(pt 15 32))
	)
	(port
		(pt 64 40)
		(output)
		(text "OUT" (rect 48 31 65 43)(font "Courier New" (bold))(invisible))
		(text "OUT" (rect 48 31 65 43)(font "Courier New" (bold))(invisible))
		(line (pt 48 40)(pt 64 40))
	)
	(drawing
		(line (pt 13 67)(pt 13 51))
		(line (pt 25 52)(pt 13 52))
		(line (pt 13 12)(pt 13 29))
		(line (pt 13 29)(pt 25 29))
		(arc (pt 7 45)(pt 7 35)(rect -14 24 19 57))
		(arc (pt 49 40)(pt 25 29)(rect -6 29 57 92))
		(arc (pt 25 51)(pt 49 40)(rect -6 -11 57 52))
	)
)
(symbol
	(rect 1000 1080 1216 1352)
	(text "gh_uart_16550_wb_wrapper" (rect 5 0 139 12)(font "Arial" ))
	(text "inst10" (rect 8 256 36 273)(font "Intel Clear" ))
	(port
		(pt 0 32)
		(input)
		(text "wb_clk_i" (rect 0 0 41 12)(font "Arial" ))
		(text "wb_clk_i" (rect 21 27 62 39)(font "Arial" ))
		(line (pt 0 32)(pt 16 32))
	)
	(port
		(pt 0 48)
		(input)
		(text "wb_rst_i" (rect 0 0 40 12)(font "Arial" ))
		(text "wb_rst_i" (rect 21 43 61 55)(font "Arial" ))
		(line (pt 0 48)(pt 16 48))
	)
	(port
		(pt 0 64)
		(input)
		(text "wb_stb_i" (rect 0 0 42 12)(font "Arial" ))
		(text "wb_stb_i" (rect 21 59 63 71)(font "Arial" ))
		(line (pt 0 64)(pt 16 64))
	)
	(port
		(pt 0 80)
		(input)
		(text "wb_cyc_i" (rect 0 0 46 12)(font "Arial" ))
		(text "wb_cyc_i" (rect 21 75 67 87)(font "Arial" ))
		(line (pt 0 80)(pt 16 80))
	)
	(port
		(pt 0 96)
		(input)
		(text "wb_we_i" (rect 0 0 40 12)(font "Arial" ))
		(text "wb_we_i" (rect 21 91 61 103)(font "Arial" ))
		(line (pt 0 96)(pt 16 96))
	)
	(port
		(pt 0 112)
		(input)
		(text "wb_adr_i[2..0]" (rect 0 0 68 12)(font "Arial" ))
		(text "wb_adr_i[2..0]" (rect 21 107 89 119)(font "Arial" ))
		(line (pt 0 112)(pt 16 112)(line_width 3))
	)
	(port
		(pt 0 128)
		(input)
		(text "wb_dat_i[7..0]" (rect 0 0 68 12)(font "Arial" ))
		(text "wb_dat_i[7..0]" (rect 21 123 89 135)(font "Arial" ))
		(line (pt 0 128)(pt 16 128)(line_width 3))
	)
	(port
		(pt 0 144)
		(input)
		(text "BR_clk" (rect 0 0 35 12)(font "Arial" ))
		(text "BR_clk" (rect 21 139 56 151)(font "Arial" ))
		(line (pt 0 144)(pt 16 144))
	)
	(port
		(pt 0 160)
		(input)
		(text "sRX" (rect 0 0 20 12)(font "Arial" ))
		(text "sRX" (rect 21 155 41 167)(font "Arial" ))
		(line (pt 0 160)(pt 16 160))
	)
	(port
		(pt 0 176)
		(input)
		(text "CTSn" (rect 0 0 27 12)(font "Arial" ))
		(text "CTSn" (rect 21 171 48 183)(font "Arial" ))
		(line (pt 0 176)(pt 16 176))
	)
	(port
		(pt 0 192)
		(input)
		(text "DSRn" (rect 0 0 29 12)(font "Arial" ))
		(text "DSRn" (rect 21 187 50 199)(font "Arial" ))
		(line (pt 0 192)(pt 16 192))
	)
	(port
		(pt 0 208)
		(input)
		(text "RIn" (rect 0 0 17 12)(font "Arial" ))
		(text "RIn" (rect 21 203 38 215)(font "Arial" ))
		(line (pt 0 208)(pt 16 208))
	)
	(port
		(pt 0 224)
		(input)
		(text "DCDn" (rect 0 0 30 12)(font "Arial" ))
		(text "DCDn" (rect 21 219 51 231)(font "Arial" ))
		(line (pt 0 224)(pt 16 224))
	)
	(port
		(pt 216 32)
		(output)
		(text "wb_ack_o" (rect 0 0 48 12)(font "Arial" ))
		(text "wb_ack_o" (rect 155 27 203 39)(font "Arial" ))
		(line (pt 216 32)(pt 200 32))
	)
	(port
		(pt 216 48)
		(output)
		(text "wb_dat_o[7..0]" (rect 0 0 71 12)(font "Arial" ))
		(text "wb_dat_o[7..0]" (rect 135 43 206 55)(font "Arial" ))
		(line (pt 216 48)(pt 200 48)(line_width 3))
	)
	(port
		(pt 216 64)
		(output)
		(text "sTX" (rect 0 0 17 12)(font "Arial" ))
		(text "sTX" (rect 181 59 198 71)(font "Arial" ))
		(line (pt 216 64)(pt 200 64))
	)
	(port
		(pt 216 80)
		(output)
		(text "DTRn" (rect 0 0 28 12)(font "Arial" ))
		(text "DTRn" (rect 172 75 200 87)(font "Arial" ))
		(line (pt 216 80)(pt 200 80))
	)
	(port
		(pt 216 96)
		(output)
		(text "RTSn" (rect 0 0 27 12)(font "Arial" ))
		(text "RTSn" (rect 173 91 200 103)(font "Arial" ))
		(line (pt 216 96)(pt 200 96))
	)
	(port
		(pt 216 112)
		(output)
		(text "OUT1n" (rect 0 0 34 12)(font "Arial" ))
		(text "OUT1n" (rect 167 107 201 119)(font "Arial" ))
		(line (pt 216 112)(pt 200 112))
	)
	(port
		(pt 216 128)
		(output)
		(text "OUT2n" (rect 0 0 34 12)(font "Arial" ))
		(text "OUT2n" (rect 167 123 201 135)(font "Arial" ))
		(line (pt 216 128)(pt 200 128))
	)
	(port
		(pt 216 144)
		(output)
		(text "TXRDYn" (rect 0 0 42 12)(font "Arial" ))
		(text "TXRDYn" (rect 160 139 202 151)(font "Arial" ))
		(line (pt 216 144)(pt 200 144))
	)
	(port
		(pt 216 160)
		(output)
		(text "RXRDYn" (rect 0 0 44 12)(font "Arial" ))
		(text "RXRDYn" (rect 158 155 202 167)(font "Arial" ))
		(line (pt 216 160)(pt 200 160))
	)
	(port
		(pt 216 176)
		(output)
		(text "IRQ" (rect 0 0 20 12)(font "Arial" ))
		(text "IRQ" (rect 179 171 199 183)(font "Arial" ))
		(line (pt 216 176)(pt 200 176))
	)
	(port
		(pt 216 192)
		(output)
		(text "B_CLK" (rect 0 0 34 12)(font "Arial" ))
		(text "B_CLK" (rect 167 187 201 199)(font "Arial" ))
		(line (pt 216 192)(pt 200 192))
	)
	(drawing
		(rectangle (rect 16 16 200 256))
	)
)
(symbol
	(rect 960 1352 992 1384)
	(text "GND" (rect 8 16 29 26)(font "Arial" (font_size 6)))
	(text "inst8" (rect 3 21 25 38)(font "Intel Clear" )(invisible))
	(port
		(pt 16 0)
		(output)
		(text "1" (rect 18 0 23 12)(font "Courier New" (bold))(invisible))
		(text "1" (rect 18 0 23 12)(font "Courier New" (bold))(invisible))
		(line (pt 16 8)(pt 16 0))
	)
	(drawing
		(line (pt 8 8)(pt 16 16))
		(line (pt 16 16)(pt 24 8))
		(line (pt 8 8)(pt 24 8))
	)
)
(symbol
	(rect 992 1624 1208 1896)
	(text "gh_uart_16550_wb_wrapper" (rect 5 0 139 12)(font "Arial" ))
	(text "inst11" (rect 8 256 36 273)(font "Intel Clear" ))
	(port
		(pt 0 32)
		(input)
		(text "wb_clk_i" (rect 0 0 41 12)(font "Arial" ))
		(text "wb_clk_i" (rect 21 27 62 39)(font "Arial" ))
		(line (pt 0 32)(pt 16 32))
	)
	(port
		(pt 0 48)
		(input)
		(text "wb_rst_i" (rect 0 0 40 12)(font "Arial" ))
		(text "wb_rst_i" (rect 21 43 61 55)(font "Arial" ))
		(line (pt 0 48)(pt 16 48))
	)
	(port
		(pt 0 64)
		(input)
		(text "wb_stb_i" (rect 0 0 42 12)(font "Arial" ))
		(text "wb_stb_i" (rect 21 59 63 71)(font "Arial" ))
		(line (pt 0 64)(pt 16 64))
	)
	(port
		(pt 0 80)
		(input)
		(text "wb_cyc_i" (rect 0 0 46 12)(font "Arial" ))
		(text "wb_cyc_i" (rect 21 75 67 87)(font "Arial" ))
		(line (pt 0 80)(pt 16 80))
	)
	(port
		(pt 0 96)
		(input)
		(text "wb_we_i" (rect 0 0 40 12)(font "Arial" ))
		(text "wb_we_i" (rect 21 91 61 103)(font "Arial" ))
		(line (pt 0 96)(pt 16 96))
	)
	(port
		(pt 0 112)
		(input)
		(text "wb_adr_i[2..0]" (rect 0 0 68 12)(font "Arial" ))
		(text "wb_adr_i[2..0]" (rect 21 107 89 119)(font "Arial" ))
		(line (pt 0 112)(pt 16 112)(line_width 3))
	)
	(port
		(pt 0 128)
		(input)
		(text "wb_dat_i[7..0]" (rect 0 0 68 12)(font "Arial" ))
		(text "wb_dat_i[7..0]" (rect 21 123 89 135)(font "Arial" ))
		(line (pt 0 128)(pt 16 128)(line_width 3))
	)
	(port
		(pt 0 144)
		(input)
		(text "BR_clk" (rect 0 0 35 12)(font "Arial" ))
		(text "BR_clk" (rect 21 139 56 151)(font "Arial" ))
		(line (pt 0 144)(pt 16 144))
	)
	(port
		(pt 0 160)
		(input)
		(text "sRX" (rect 0 0 20 12)(font "Arial" ))
		(text "sRX" (rect 21 155 41 167)(font "Arial" ))
		(line (pt 0 160)(pt 16 160))
	)
	(port
		(pt 0 176)
		(input)
		(text "CTSn" (rect 0 0 27 12)(font "Arial" ))
		(text "CTSn" (rect 21 171 48 183)(font "Arial" ))
		(line (pt 0 176)(pt 16 176))
	)
	(port
		(pt 0 192)
		(input)
		(text "DSRn" (rect 0 0 29 12)(font "Arial" ))
		(text "DSRn" (rect 21 187 50 199)(font "Arial" ))
		(line (pt 0 192)(pt 16 192))
	)
	(port
		(pt 0 208)
		(input)
		(text "RIn" (rect 0 0 17 12)(font "Arial" ))
		(text "RIn" (rect 21 203 38 215)(font "Arial" ))
		(line (pt 0 208)(pt 16 208))
	)
	(port
		(pt 0 224)
		(input)
		(text "DCDn" (rect 0 0 30 12)(font "Arial" ))
		(text "DCDn" (rect 21 219 51 231)(font "Arial" ))
		(line (pt 0 224)(pt 16 224))
	)
	(port
		(pt 216 32)
		(output)
		(text "wb_ack_o" (rect 0 0 48 12)(font "Arial" ))
		(text "wb_ack_o" (rect 155 27 203 39)(font "Arial" ))
		(line (pt 216 32)(pt 200 32))
	)
	(port
		(pt 216 48)
		(output)
		(text "wb_dat_o[7..0]" (rect 0 0 71 12)(font "Arial" ))
		(text "wb_dat_o[7..0]" (rect 135 43 206 55)(font "Arial" ))
		(line (pt 216 48)(pt 200 48)(line_width 3))
	)
	(port
		(pt 216 64)
		(output)
		(text "sTX" (rect 0 0 17 12)(font "Arial" ))
		(text "sTX" (rect 181 59 198 71)(font "Arial" ))
		(line (pt 216 64)(pt 200 64))
	)
	(port
		(pt 216 80)
		(output)
		(text "DTRn" (rect 0 0 28 12)(font "Arial" ))
		(text "DTRn" (rect 172 75 200 87)(font "Arial" ))
		(line (pt 216 80)(pt 200 80))
	)
	(port
		(pt 216 96)
		(output)
		(text "RTSn" (rect 0 0 27 12)(font "Arial" ))
		(text "RTSn" (rect 173 91 200 103)(font "Arial" ))
		(line (pt 216 96)(pt 200 96))
	)
	(port
		(pt 216 112)
		(output)
		(text "OUT1n" (rect 0 0 34 12)(font "Arial" ))
		(text "OUT1n" (rect 167 107 201 119)(font "Arial" ))
		(line (pt 216 112)(pt 200 112))
	)
	(port
		(pt 216 128)
		(output)
		(text "OUT2n" (rect 0 0 34 12)(font "Arial" ))
		(text "OUT2n" (rect 167 123 201 135)(font "Arial" ))
		(line (pt 216 128)(pt 200 128))
	)
	(port
		(pt 216 144)
		(output)
		(text "TXRDYn" (rect 0 0 42 12)(font "Arial" ))
		(text "TXRDYn" (rect 160 139 202 151)(font "Arial" ))
		(line (pt 216 144)(pt 200 144))
	)
	(port
		(pt 216 160)
		(output)
		(text "RXRDYn" (rect 0 0 44 12)(font "Arial" ))
		(text "RXRDYn" (rect 158 155 202 167)(font "Arial" ))
		(line (pt 216 160)(pt 200 160))
	)
	(port
		(pt 216 176)
		(output)
		(text "IRQ" (rect 0 0 20 12)(font "Arial" ))
		(text "IRQ" (rect 179 171 199 183)(font "Arial" ))
		(line (pt 216 176)(pt 200 176))
	)
	(port
		(pt 216 192)
		(output)
		(text "B_CLK" (rect 0 0 34 12)(font "Arial" ))
		(text "B_CLK" (rect 167 187 201 199)(font "Arial" ))
		(line (pt 216 192)(pt 200 192))
	)
	(drawing
		(rectangle (rect 16 16 200 256))
	)
)
(symbol
	(rect 992 2064 1208 2336)
	(text "gh_uart_16550_wb_wrapper" (rect 5 0 139 12)(font "Arial" ))
	(text "inst12" (rect 8 256 36 273)(font "Intel Clear" ))
	(port
		(pt 0 32)
		(input)
		(text "wb_clk_i" (rect 0 0 41 12)(font "Arial" ))
		(text "wb_clk_i" (rect 21 27 62 39)(font "Arial" ))
		(line (pt 0 32)(pt 16 32))
	)
	(port
		(pt 0 48)
		(input)
		(text "wb_rst_i" (rect 0 0 40 12)(font "Arial" ))
		(text "wb_rst_i" (rect 21 43 61 55)(font "Arial" ))
		(line (pt 0 48)(pt 16 48))
	)
	(port
		(pt 0 64)
		(input)
		(text "wb_stb_i" (rect 0 0 42 12)(font "Arial" ))
		(text "wb_stb_i" (rect 21 59 63 71)(font "Arial" ))
		(line (pt 0 64)(pt 16 64))
	)
	(port
		(pt 0 80)
		(input)
		(text "wb_cyc_i" (rect 0 0 46 12)(font "Arial" ))
		(text "wb_cyc_i" (rect 21 75 67 87)(font "Arial" ))
		(line (pt 0 80)(pt 16 80))
	)
	(port
		(pt 0 96)
		(input)
		(text "wb_we_i" (rect 0 0 40 12)(font "Arial" ))
		(text "wb_we_i" (rect 21 91 61 103)(font "Arial" ))
		(line (pt 0 96)(pt 16 96))
	)
	(port
		(pt 0 112)
		(input)
		(text "wb_adr_i[2..0]" (rect 0 0 68 12)(font "Arial" ))
		(text "wb_adr_i[2..0]" (rect 21 107 89 119)(font "Arial" ))
		(line (pt 0 112)(pt 16 112)(line_width 3))
	)
	(port
		(pt 0 128)
		(input)
		(text "wb_dat_i[7..0]" (rect 0 0 68 12)(font "Arial" ))
		(text "wb_dat_i[7..0]" (rect 21 123 89 135)(font "Arial" ))
		(line (pt 0 128)(pt 16 128)(line_width 3))
	)
	(port
		(pt 0 144)
		(input)
		(text "BR_clk" (rect 0 0 35 12)(font "Arial" ))
		(text "BR_clk" (rect 21 139 56 151)(font "Arial" ))
		(line (pt 0 144)(pt 16 144))
	)
	(port
		(pt 0 160)
		(input)
		(text "sRX" (rect 0 0 20 12)(font "Arial" ))
		(text "sRX" (rect 21 155 41 167)(font "Arial" ))
		(line (pt 0 160)(pt 16 160))
	)
	(port
		(pt 0 176)
		(input)
		(text "CTSn" (rect 0 0 27 12)(font "Arial" ))
		(text "CTSn" (rect 21 171 48 183)(font "Arial" ))
		(line (pt 0 176)(pt 16 176))
	)
	(port
		(pt 0 192)
		(input)
		(text "DSRn" (rect 0 0 29 12)(font "Arial" ))
		(text "DSRn" (rect 21 187 50 199)(font "Arial" ))
		(line (pt 0 192)(pt 16 192))
	)
	(port
		(pt 0 208)
		(input)
		(text "RIn" (rect 0 0 17 12)(font "Arial" ))
		(text "RIn" (rect 21 203 38 215)(font "Arial" ))
		(line (pt 0 208)(pt 16 208))
	)
	(port
		(pt 0 224)
		(input)
		(text "DCDn" (rect 0 0 30 12)(font "Arial" ))
		(text "DCDn" (rect 21 219 51 231)(font "Arial" ))
		(line (pt 0 224)(pt 16 224))
	)
	(port
		(pt 216 32)
		(output)
		(text "wb_ack_o" (rect 0 0 48 12)(font "Arial" ))
		(text "wb_ack_o" (rect 155 27 203 39)(font "Arial" ))
		(line (pt 216 32)(pt 200 32))
	)
	(port
		(pt 216 48)
		(output)
		(text "wb_dat_o[7..0]" (rect 0 0 71 12)(font "Arial" ))
		(text "wb_dat_o[7..0]" (rect 135 43 206 55)(font "Arial" ))
		(line (pt 216 48)(pt 200 48)(line_width 3))
	)
	(port
		(pt 216 64)
		(output)
		(text "sTX" (rect 0 0 17 12)(font "Arial" ))
		(text "sTX" (rect 181 59 198 71)(font "Arial" ))
		(line (pt 216 64)(pt 200 64))
	)
	(port
		(pt 216 80)
		(output)
		(text "DTRn" (rect 0 0 28 12)(font "Arial" ))
		(text "DTRn" (rect 172 75 200 87)(font "Arial" ))
		(line (pt 216 80)(pt 200 80))
	)
	(port
		(pt 216 96)
		(output)
		(text "RTSn" (rect 0 0 27 12)(font "Arial" ))
		(text "RTSn" (rect 173 91 200 103)(font "Arial" ))
		(line (pt 216 96)(pt 200 96))
	)
	(port
		(pt 216 112)
		(output)
		(text "OUT1n" (rect 0 0 34 12)(font "Arial" ))
		(text "OUT1n" (rect 167 107 201 119)(font "Arial" ))
		(line (pt 216 112)(pt 200 112))
	)
	(port
		(pt 216 128)
		(output)
		(text "OUT2n" (rect 0 0 34 12)(font "Arial" ))
		(text "OUT2n" (rect 167 123 201 135)(font "Arial" ))
		(line (pt 216 128)(pt 200 128))
	)
	(port
		(pt 216 144)
		(output)
		(text "TXRDYn" (rect 0 0 42 12)(font "Arial" ))
		(text "TXRDYn" (rect 160 139 202 151)(font "Arial" ))
		(line (pt 216 144)(pt 200 144))
	)
	(port
		(pt 216 160)
		(output)
		(text "RXRDYn" (rect 0 0 44 12)(font "Arial" ))
		(text "RXRDYn" (rect 158 155 202 167)(font "Arial" ))
		(line (pt 216 160)(pt 200 160))
	)
	(port
		(pt 216 176)
		(output)
		(text "IRQ" (rect 0 0 20 12)(font "Arial" ))
		(text "IRQ" (rect 179 171 199 183)(font "Arial" ))
		(line (pt 216 176)(pt 200 176))
	)
	(port
		(pt 216 192)
		(output)
		(text "B_CLK" (rect 0 0 34 12)(font "Arial" ))
		(text "B_CLK" (rect 167 187 201 199)(font "Arial" ))
		(line (pt 216 192)(pt 200 192))
	)
	(drawing
		(rectangle (rect 16 16 200 256))
	)
)
(symbol
	(rect 960 1904 992 1936)
	(text "GND" (rect 8 16 29 26)(font "Arial" (font_size 6)))
	(text "inst9" (rect 3 21 25 38)(font "Intel Clear" )(invisible))
	(port
		(pt 16 0)
		(output)
		(text "1" (rect 18 0 23 12)(font "Courier New" (bold))(invisible))
		(text "1" (rect 18 0 23 12)(font "Courier New" (bold))(invisible))
		(line (pt 16 8)(pt 16 0))
	)
	(drawing
		(line (pt 8 8)(pt 16 16))
		(line (pt 16 16)(pt 24 8))
		(line (pt 8 8)(pt 24 8))
	)
)
(symbol
	(rect 952 2344 984 2376)
	(text "GND" (rect 8 16 29 26)(font "Arial" (font_size 6)))
	(text "inst13" (rect 3 21 31 38)(font "Intel Clear" )(invisible))
	(port
		(pt 16 0)
		(output)
		(text "1" (rect 18 0 23 12)(font "Courier New" (bold))(invisible))
		(text "1" (rect 18 0 23 12)(font "Courier New" (bold))(invisible))
		(line (pt 16 8)(pt 16 0))
	)
	(drawing
		(line (pt 8 8)(pt 16 16))
		(line (pt 16 16)(pt 24 8))
		(line (pt 8 8)(pt 24 8))
	)
)
(connector
	(pt 488 312)
	(pt 944 312)
)
(connector
	(pt 488 336)
	(pt 912 336)
	(bus)
)
(connector
	(pt 680 672)
	(pt 680 680)
)
(connector
	(pt 464 672)
	(pt 672 672)
)
(connector
	(pt 672 672)
	(pt 680 672)
)
(connector
	(pt 944 792)
	(pt 984 792)
)
(connector
	(pt 944 680)
	(pt 984 680)
)
(connector
	(pt 480 704)
	(pt 480 696)
)
(connector
	(pt 472 704)
	(pt 480 704)
)
(connector
	(pt 896 712)
	(pt 984 712)
)
(connector
	(pt 552 536)
	(pt 552 760)
	(bus)
)
(connector
	(pt 944 312)
	(pt 944 680)
)
(connector
	(pt 912 776)
	(pt 984 776)
	(bus)
)
(connector
	(pt 896 728)
	(pt 984 728)
)
(connector
	(pt 480 696)
	(pt 672 696)
)
(connector
	(text "Address[3..1]" (rect 562 744 623 761)(font "Intel Clear" ))
	(pt 552 760)
	(pt 984 760)
	(bus)
)
(connector
	(pt 984 872)
	(pt 936 872)
)
(connector
	(pt 984 856)
	(pt 936 856)
)
(connector
	(pt 984 840)
	(pt 936 840)
)
(connector
	(pt 984 824)
	(pt 936 824)
)
(connector
	(pt 936 824)
	(pt 936 840)
)
(connector
	(pt 936 840)
	(pt 936 856)
)
(connector
	(pt 936 856)
	(pt 936 872)
)
(connector
	(pt 936 872)
	(pt 936 928)
)
(connector
	(pt 936 928)
	(pt 936 936)
)
(connector
	(pt 1200 696)
	(pt 1248 696)
	(bus)
)
(connector
	(pt 1248 488)
	(pt 1528 488)
	(bus)
)
(connector
	(pt 1280 824)
	(pt 1200 824)
)
(connector
	(pt 944 680)
	(pt 944 792)
)
(connector
	(pt 944 1112)
	(pt 1000 1112)
)
(connector
	(pt 944 792)
	(pt 944 1112)
)
(connector
	(pt 944 1224)
	(pt 1000 1224)
)
(connector
	(pt 912 1208)
	(pt 1000 1208)
	(bus)
)
(connector
	(pt 912 336)
	(pt 912 776)
	(bus)
)
(connector
	(text "Address[3..1]" (rect 562 1176 623 1193)(font "Intel Clear" ))
	(pt 552 1192)
	(pt 1000 1192)
	(bus)
)
(connector
	(pt 480 552)
	(pt 560 552)
)
(connector
	(pt 480 568)
	(pt 560 568)
)
(connector
	(pt 480 536)
	(pt 552 536)
	(bus)
)
(connector
	(pt 552 536)
	(pt 560 536)
	(bus)
)
(connector
	(pt 896 536)
	(pt 896 712)
)
(connector
	(pt 896 712)
	(pt 896 728)
)
(connector
	(pt 832 536)
	(pt 896 536)
)
(connector
	(pt 720 672)
	(pt 760 672)
)
(connector
	(pt 760 1176)
	(pt 1000 1176)
)
(connector
	(pt 760 672)
	(pt 760 744)
)
(connector
	(pt 792 1128)
	(pt 1000 1128)
)
(connector
	(pt 720 696)
	(pt 792 696)
)
(connector
	(pt 792 696)
	(pt 984 696)
)
(connector
	(pt 984 808)
	(pt 896 808)
)
(connector
	(pt 1000 1256)
	(pt 976 1256)
)
(connector
	(pt 976 1352)
	(pt 976 1360)
)
(connector
	(pt 1000 1272)
	(pt 976 1272)
)
(connector
	(pt 976 1256)
	(pt 976 1272)
)
(connector
	(pt 976 1272)
	(pt 976 1288)
)
(connector
	(pt 1000 1288)
	(pt 976 1288)
)
(connector
	(pt 976 1288)
	(pt 976 1304)
)
(connector
	(pt 976 1304)
	(pt 976 1352)
)
(connector
	(pt 1000 1304)
	(pt 976 1304)
)
(connector
	(pt 1200 712)
	(pt 1304 712)
)
(connector
	(pt 1248 1128)
	(pt 1216 1128)
	(bus)
)
(connector
	(pt 1248 488)
	(pt 1248 696)
	(bus)
)
(connector
	(pt 760 744)
	(pt 984 744)
)
(connector
	(pt 1216 1256)
	(pt 1336 1256)
)
(connector
	(pt 1216 1144)
	(pt 1312 1144)
)
(connector
	(pt 1312 1408)
	(pt 1488 1408)
)
(connector
	(pt 1312 1144)
	(pt 1312 1408)
)
(connector
	(pt 1280 824)
	(pt 1280 544)
)
(connector
	(pt 1336 1256)
	(pt 1336 560)
)
(connector
	(pt 1536 568)
	(pt 1992 568)
)
(connector
	(pt 1992 568)
	(pt 2008 568)
)
(connector
	(pt 1280 544)
	(pt 1472 544)
)
(connector
	(pt 1336 560)
	(pt 1472 560)
)
(connector
	(pt 1304 712)
	(pt 1304 984)
)
(connector
	(pt 1304 984)
	(pt 1600 984)
)
(connector
	(pt 896 808)
	(pt 896 1016)
)
(connector
	(pt 896 1016)
	(pt 1608 1016)
)
(connector
	(pt 944 1112)
	(pt 944 1224)
)
(connector
	(pt 1000 1240)
	(pt 816 1240)
)
(connector
	(pt 816 1240)
	(pt 816 1440)
)
(connector
	(pt 1488 1440)
	(pt 816 1440)
)
(connector
	(pt 832 552)
	(pt 872 552)
)
(connector
	(pt 872 1144)
	(pt 1000 1144)
)
(connector
	(pt 1000 1160)
	(pt 872 1160)
)
(connector
	(pt 872 552)
	(pt 872 1144)
)
(connector
	(pt 872 1144)
	(pt 872 1160)
)
(connector
	(pt 824 568)
	(pt 832 568)
)
(connector
	(pt 832 568)
	(pt 856 568)
)
(connector
	(pt 912 1752)
	(pt 992 1752)
	(bus)
)
(connector
	(pt 944 1656)
	(pt 992 1656)
)
(connector
	(pt 944 1768)
	(pt 992 1768)
)
(connector
	(pt 792 1672)
	(pt 992 1672)
)
(connector
	(pt 856 1688)
	(pt 992 1688)
)
(connector
	(pt 856 1704)
	(pt 992 1704)
)
(connector
	(pt 760 1720)
	(pt 992 1720)
)
(connector
	(pt 976 1800)
	(pt 992 1800)
)
(connector
	(pt 976 1816)
	(pt 992 1816)
)
(connector
	(pt 976 1832)
	(pt 992 1832)
)
(connector
	(pt 976 1848)
	(pt 992 1848)
)
(connector
	(pt 912 776)
	(pt 912 1208)
	(bus)
)
(connector
	(pt 944 1224)
	(pt 944 1656)
)
(connector
	(pt 552 760)
	(pt 552 1192)
	(bus)
)
(connector
	(pt 792 696)
	(pt 792 1128)
)
(connector
	(pt 856 568)
	(pt 856 1688)
)
(connector
	(pt 856 1688)
	(pt 856 1704)
)
(connector
	(pt 760 744)
	(pt 760 1176)
)
(connector
	(pt 976 1800)
	(pt 976 1816)
)
(connector
	(pt 976 1816)
	(pt 976 1832)
)
(connector
	(pt 976 1832)
	(pt 976 1848)
)
(connector
	(pt 976 1848)
	(pt 976 1904)
)
(connector
	(pt 1248 696)
	(pt 1248 1128)
	(bus)
)
(connector
	(pt 1208 1672)
	(pt 1248 1672)
	(bus)
)
(connector
	(pt 1424 592)
	(pt 1472 592)
)
(connector
	(pt 1368 576)
	(pt 1472 576)
)
(connector
	(pt 1368 576)
	(pt 1368 1800)
)
(connector
	(pt 1368 1800)
	(pt 1208 1800)
)
(connector
	(pt 1208 1688)
	(pt 1440 1688)
)
(connector
	(pt 1440 1688)
	(pt 1440 1960)
)
(connector
	(pt 1440 1960)
	(pt 1568 1960)
)
(connector
	(pt 824 1984)
	(pt 824 1784)
)
(connector
	(pt 1576 1984)
	(pt 1568 1984)
)
(connector
	(pt 1568 1984)
	(pt 824 1984)
)
(connector
	(pt 824 1784)
	(pt 992 1784)
)
(connector
	(pt 944 2096)
	(pt 992 2096)
)
(connector
	(pt 944 1656)
	(pt 944 1768)
)
(connector
	(pt 944 2208)
	(pt 992 2208)
)
(connector
	(pt 944 1768)
	(pt 944 2096)
)
(connector
	(pt 944 2096)
	(pt 944 2208)
)
(connector
	(pt 912 2192)
	(pt 992 2192)
	(bus)
)
(connector
	(pt 912 1208)
	(pt 912 1752)
	(bus)
)
(connector
	(pt 912 1752)
	(pt 912 2192)
	(bus)
)
(connector
	(pt 792 2112)
	(pt 992 2112)
)
(connector
	(pt 792 1128)
	(pt 792 1672)
)
(connector
	(pt 792 1672)
	(pt 792 2112)
)
(connector
	(pt 832 584)
	(pt 840 584)
)
(connector
	(pt 840 2128)
	(pt 992 2128)
)
(connector
	(pt 840 2144)
	(pt 992 2144)
)
(connector
	(pt 840 584)
	(pt 840 2128)
)
(connector
	(pt 840 2128)
	(pt 840 2144)
)
(connector
	(pt 760 2160)
	(pt 992 2160)
)
(connector
	(pt 760 1176)
	(pt 760 1720)
)
(connector
	(pt 760 1720)
	(pt 760 2160)
)
(connector
	(pt 992 2224)
	(pt 872 2224)
)
(connector
	(pt 872 2408)
	(pt 1472 2408)
)
(connector
	(pt 872 2224)
	(pt 872 2408)
)
(connector
	(pt 992 2240)
	(pt 968 2240)
)
(connector
	(pt 968 2240)
	(pt 968 2256)
)
(connector
	(pt 992 2256)
	(pt 968 2256)
)
(connector
	(pt 968 2256)
	(pt 968 2272)
)
(connector
	(pt 992 2272)
	(pt 968 2272)
)
(connector
	(pt 968 2288)
	(pt 992 2288)
)
(connector
	(pt 968 2272)
	(pt 968 2288)
)
(connector
	(pt 968 2288)
	(pt 968 2344)
)
(connector
	(text "Address[3..1]" (rect 562 2160 623 2177)(font "Intel Clear" ))
	(pt 552 2176)
	(pt 992 2176)
	(bus)
)
(connector
	(text "Address[3..1]" (rect 586 1720 647 1737)(font "Intel Clear" ))
	(pt 552 1736)
	(pt 992 1736)
	(bus)
)
(connector
	(pt 552 1192)
	(pt 552 1736)
	(bus)
)
(connector
	(pt 552 1736)
	(pt 552 2176)
	(bus)
)
(connector
	(pt 1248 2112)
	(pt 1208 2112)
	(bus)
)
(connector
	(pt 1248 1128)
	(pt 1248 1672)
	(bus)
)
(connector
	(pt 1248 1672)
	(pt 1248 2112)
	(bus)
)
(connector
	(pt 1208 2128)
	(pt 1344 2128)
)
(connector
	(pt 1344 2128)
	(pt 1344 2384)
)
(connector
	(pt 1344 2384)
	(pt 1464 2384)
)
(connector
	(pt 1424 2240)
	(pt 1208 2240)
)
(connector
	(pt 1424 592)
	(pt 1424 2240)
)
(junction (pt 552 536))
(junction (pt 672 672))
(junction (pt 552 760))
(junction (pt 944 680))
(junction (pt 896 712))
(junction (pt 936 856))
(junction (pt 936 840))
(junction (pt 936 872))
(junction (pt 936 928))
(junction (pt 944 792))
(junction (pt 944 1112))
(junction (pt 912 776))
(junction (pt 552 1192))
(junction (pt 760 744))
(junction (pt 792 696))
(junction (pt 976 1352))
(junction (pt 976 1272))
(junction (pt 976 1288))
(junction (pt 976 1304))
(junction (pt 1248 696))
(junction (pt 1992 568))
(junction (pt 912 1208))
(junction (pt 944 1224))
(junction (pt 944 1656))
(junction (pt 792 1128))
(junction (pt 872 1144))
(junction (pt 832 568))
(junction (pt 856 1688))
(junction (pt 760 1176))
(junction (pt 976 1816))
(junction (pt 976 1832))
(junction (pt 976 1848))
(junction (pt 1248 1128))
(junction (pt 1568 1984))
(junction (pt 944 1768))
(junction (pt 944 2096))
(junction (pt 912 1752))
(junction (pt 552 1736))
(junction (pt 792 1672))
(junction (pt 840 2128))
(junction (pt 760 1720))
(junction (pt 968 2256))
(junction (pt 968 2272))
(junction (pt 968 2288))
(junction (pt 1248 1672))
(text "Interrupt request output from serial port(s)" (rect 1624 528 1863 542)(font "Arial" (font_size 8)))
(text "An active low write enable signal" (rect 104 760 293 774)(font "Arial" (font_size 8)))
(text "This is driven low whenever the CPU writes to a location" (rect 104 776 427 790)(font "Arial" (font_size 8)))
(text "Primary IO decoder: Produces enables to IO devices" (rect 592 456 888 470)(font "Arial" (font_size 8)))
(text "based on addresses issued by CPU via bridge" (rect 592 472 855 486)(font "Arial" (font_size 8)))
(text "IMPORTANT : Delete the TriStateOutput device below (driving the pins DataOut[7 downto 0]) when you have wired up your serial ports, it's there just to allow the design to compile until we add our own" (rect 1080 280 2599 297)(font "Arial" (color 255 0 0)(font_size 11)))
(text "ByteSelect_L is driven to '0' when CPU accesses EVEN address" (rect 88 600 454 614)(font "Arial" (font_size 8)))
(text "IOSelect_H is driven by the Avalon to External Bridge when CPU access" (rect 88 616 498 630)(font "Arial" (font_size 8)))
(text "We need to decode the \"FFFF\" part to provide selects for your ports " (rect 88 656 478 670)(font "Arial" (font_size 8)))
(text "That's why s lines A15:A0 are available above and feed a decoder" (rect 88 672 469 686)(font "Arial" (font_size 8)))
(text "DataIn[7..0], this is connected to CPU data bus bits [7..0] on the next level up" (rect 304 360 735 374)(font "Arial" (font_size 8)))
(text "DataOut[7..0], this is actually connected to CPU data bus bits [7..0] on the next level up" (rect 1280 440 1769 454)(font "Arial" (font_size 8)))
(text "any address in range hex FF21_0000 - FF21_FFFF" (rect 88 632 377 646)(font "Arial" (font_size 8)))
